<svg width="1440" height="1024" viewBox="0 0 1440 1024" fill="none" xmlns="http://www.w3.org/2000/svg">
    <line x1="-82.4645" y1="-317.536" x2="1554.54" y2="1319.46" stroke="#4E2745" stroke-width="10"/>
    <line x1="217.536" y1="-542.536" x2="1854.54" y2="1094.46" stroke="#4E2745" stroke-width="10"/>
    <line x1="-421.464" y1="-146.536" x2="1215.54" y2="1490.46" stroke="#4E2745" stroke-width="10"/>
</svg>
