<svg width="151" height="144" viewBox="0 0 151 144" fill="none" xmlns="http://www.w3.org/2000/svg">
    <path d="M150.009 0.190568L78.8131 143.741L0.774788 58.5404L150.009 0.190568Z" fill="#4E2745"/>
</svg>
